23

51 2
2
t 0 0 s
t 21 0 w
80 40

123 71
3
h 118 53 e
t 5 15 e
t 66 1 e
5 36

126 82
7
r 44 68 s
h 41 25 s
t 74 66 s
f 55 68 e
r 3 35 e
r 108 74 w
r 35 66 w
80 47

44 136
12
t 7 134 n
f 28 42 w
h 22 50 e
r 38 74 e
t 12 84 e
h 37 0 n
t 41 128 w
h 38 73 e
f 34 54 e
f 18 91 w
h 17 61 w
t 2 132 w
2 19

104 78
12
r 56 29 n
t 94 3 w
f 100 39 s
f 22 62 s
h 13 2 s
f 103 1 n
h 93 49 s
r 80 57 n
t 102 27 w
r 44 6 n
f 9 71 s
h 58 31 n
64 4

17 2
1
f 8 0 w
26 19

94 16
3
r 13 5 e
f 0 1 e
f 79 6 e
75 19

120 44
9
h 103 26 e
f 62 4 n
t 79 5 w
h 62 0 s
h 26 15 e
t 87 23 w
t 113 3 s
t 119 35 n
h 46 18 w
91 40

21 6
3
f 12 5 w
r 3 4 n
r 15 5 w
10 14

121 149
12
h 25 2 s
h 74 112 w
f 43 66 n
r 90 48 e
f 114 83 n
r 12 135 e
r 7 130 w
t 61 49 s
f 25 51 s
h 61 98 s
t 69 114 e
t 101 70 w
71 13

88 27
9
f 85 14 w
t 60 13 e
h 5 26 s
r 84 9 e
h 57 18 s
r 60 11 s
f 58 26 w
f 38 17 n
t 25 13 e
57 34

81 98
4
f 73 2 e
f 67 55 s
h 51 46 n
f 80 41 w
93 21

61 103
12
r 36 71 s
h 13 38 n
h 11 67 w
f 37 4 s
t 19 80 w
r 37 54 n
t 31 90 s
t 41 97 s
h 8 68 n
t 42 45 w
f 19 23 n
t 51 8 n
75 43

104 69
8
r 26 60 s
r 23 45 e
r 11 50 w
f 36 8 e
f 7 33 s
r 55 13 n
f 82 31 e
f 34 54 s
38 6

17 132
2
f 12 50 w
f 14 112 s
29 27

14 76
6
t 4 74 w
r 6 9 w
h 12 45 n
f 6 31 w
f 2 61 e
h 4 37 s
61 27

89 112
5
f 2 71 n
h 14 5 e
h 56 40 n
h 81 70 w
t 16 109 e
16 16

92 142
13
h 75 86 s
t 28 87 n
f 70 81 n
f 30 104 n
h 68 44 n
h 56 72 s
r 10 59 w
t 72 62 s
h 50 3 e
t 12 73 s
r 66 101 n
t 78 29 n
r 17 20 e
83 6

64 75
11
r 52 5 w
t 14 53 w
h 23 71 e
r 33 73 s
t 35 4 s
t 51 13 e
h 55 52 e
t 35 59 w
t 4 5 e
h 17 24 e
t 51 19 w
34 47

139 48
1
f 46 43 n
16 29

22 34
12
t 12 13 w
r 12 1 w
r 1 6 s
f 15 32 s
t 4 0 w
r 21 9 s
t 0 9 e
t 2 21 w
f 20 10 n
h 16 12 w
r 0 7 e
r 6 17 n
53 3

94 96
15
h 79 41 n
t 86 86 w
t 27 25 e
f 85 62 s
t 13 83 s
r 57 66 n
r 79 75 w
t 39 8 e
r 91 86 w
h 87 33 n
h 41 39 n
f 21 25 n
f 55 5 n
t 86 30 s
h 12 3 w
28 19

104 89
4
t 102 75 n
r 75 36 n
t 56 27 n
r 102 68 w
94 45
