*** Darwin 26x32 ***
Turn = 0.
  01234567890123456789012345678901
0 ...........................t....
1 .............f...............r.t
2 ................................
3 ................................
4 .........t......................
5 ................................
6 ................................
7 ........f.......................
8 ................................
9 ................................
0 ................................
1 ................................
2 ................................
3 ................................
4 ..................r.............
5 ................................
6 ..........................h.....
7 ................................
8 ................................
9 ................................
0 ................................
1 ................................
2 ..r.............................
3 ........................t......t
4 ................................
5 ................................

Turn = 5.
  01234567890123456789012345678901
0 ...........................t..r.
1 .............f..................
2 ................................
3 ................................
4 .........t.....................r
5 ................................
6 ................................
7 ........f.......................
8 ................................
9 ................................
0 ................................
1 ................................
2 ................................
3 ................................
4 .......................r........
5 ................................
6 ................................
7 ..r.............................
8 ................................
9 ................................
0 ................................
1 ..........................h.....
2 ................................
3 ........................t......t
4 ................................
5 ................................

*** Darwin 20x46 ***
Turn = 0.
  0123456789012345678901234567890123456789012345
0 ..t...........................................
1 ..............................................
2 ..............................................
3 ..............................................
4 ...................r.....................f....
5 ..r...............................f...........
6 ..............................................
7 ..............................................
8 ..................................t...........
9 ..............................................
0 ..................r...........................
1 ..............................................
2 ..............................................
3 ..............................................
4 ..............................................
5 ..............................................
6 ..............................................
7 ......................................h.......
8 ..............................................
9 ....................r.........................

Turn = 2.
  0123456789012345678901234567890123456789012345
0 ..t...........................................
1 ..............................................
2 ..............................................
3 ..............................................
4 .........................................f....
5 r.................................f...........
6 ...................r..........................
7 ..............................................
8 ..................................t...........
9 ..............................................
0 ....................r.........................
1 ..............................................
2 ..............................................
3 ..............................................
4 ..............................................
5 ..............................................
6 ..............................................
7 ....................r...............h.........
8 ..............................................
9 ..............................................

Turn = 4.
  0123456789012345678901234567890123456789012345
0 ..t...........................................
1 ..............................................
2 ..............................................
3 ..............................................
4 r........................................f....
5 ..................................f...........
6 ..............................................
7 ..............................................
8 ...................r..............t...........
9 ..............................................
0 ......................r.......................
1 ..............................................
2 ..............................................
3 ..............................................
4 ..............................................
5 ....................r.........................
6 ..............................................
7 ..................................h...........
8 ..............................................
9 ..............................................

Turn = 6.
  0123456789012345678901234567890123456789012345
0 ..t...........................................
1 ..............................................
2 r.............................................
3 ..............................................
4 .........................................f....
5 ..................................f...........
6 ..............................................
7 ..............................................
8 ..................................t...........
9 ..............................................
0 ...................r....r.....................
1 ..............................................
2 ..............................................
3 ....................r.........................
4 ..............................................
5 ..............................................
6 ..............................................
7 ................................h.............
8 ..............................................
9 ..............................................

Turn = 8.
  0123456789012345678901234567890123456789012345
0 r.t...........................................
1 ..............................................
2 ..............................................
3 ..............................................
4 .........................................f....
5 ..................................f...........
6 ..............................................
7 ..............................................
8 ..................................t...........
9 ..............................................
0 ..........................r...................
1 ....................r.........................
2 ...................r..........................
3 ..............................................
4 ..............................................
5 ..............................................
6 ..............................................
7 ..............................h...............
8 ..............................................
9 ..............................................

Turn = 10.
  0123456789012345678901234567890123456789012345
0 r.t...........................................
1 ..............................................
2 ..............................................
3 ..............................................
4 .........................................f....
5 ..................................f...........
6 ..............................................
7 ..............................................
8 ..................................t...........
9 ....................r.........................
0 ............................r.................
1 ..............................................
2 ..............................................
3 ..............................................
4 ...................r..........................
5 ..............................................
6 ..............................................
7 ............................h.................
8 ..............................................
9 ..............................................

*** Darwin 38x44 ***
Turn = 0.
  01234567890123456789012345678901234567890123
0 ............................................
1 ............................................
2 ...............................h............
3 ..................h.........................
4 ...............................r............
5 ............................................
6 ............................................
7 ............................................
8 ............................................
9 ............................................
0 ............................................
1 ............................................
2 ............................................
3 ............................................
4 ............................................
5 ................t...........................
6 ............f...............................
7 ............................................
8 ............................................
9 ............................................
0 ..................r..............f..........
1 .........................h..................
2 ............................................
3 ............................................
4 ............................................
5 ............................................
6 ............................................
7 ............................................
8 ............................................
9 ...................................t........
0 .................h..........................
1 ............................................
2 ............................................
3 ............................................
4 ............................................
5 ............................................
6 ............................................
7 ............................................

Turn = 5.
  01234567890123456789012345678901234567890123
0 ...............................h............
1 ............................................
2 ............................................
3 .......................h....................
4 ..........................r.................
5 ............................................
6 ............................................
7 ............................................
8 ............................................
9 ............................................
0 ............................................
1 ............................................
2 ............................................
3 ............................................
4 ............................................
5 ................t...........................
6 ............f...............................
7 ............................................
8 ............................................
9 ............................................
0 .............r...................f..........
1 ..............................h.............
2 ............................................
3 ............................................
4 ............................................
5 ............................................
6 ............................................
7 ............................................
8 ............................................
9 ...................................t........
0 ............................................
1 ............................................
2 ............................................
3 ............................................
4 ............................................
5 .................h..........................
6 ............................................
7 ............................................

*** Darwin 28x36 ***
Turn = 0.
  012345678901234567890123456789012345
0 .f..t...............................
1 ....................................
2 ....................................
3 ....................................
4 ....................................
5 ..r.................................
6 ....................................
7 ...........h.......................t
8 ....................................
9 ........................f...........
0 .......................f............
1 ....................................
2 ....................................
3 ....................................
4 ....................................
5 ....................................
6 ....................................
7 ....................................
8 ....................................
9 ....................................
0 .......................h..h.........
1 ....................................
2 ....................................
3 ....................................
4 ................r...................
5 ...f................................
6 ....................................
7 ....................................

Turn = 3.
  012345678901234567890123456789012345
0 .f..t...............................
1 ....................................
2 ....................................
3 ....................................
4 ...........h........................
5 r...................................
6 ....................................
7 ...................................t
8 ....................................
9 ........................f...........
0 .......................f............
1 ....................................
2 ....................................
3 ....................................
4 ....................................
5 ....................................
6 ....................................
7 ..........................h.........
8 ....................................
9 ....................................
0 ....................h...............
1 ....................................
2 ....................................
3 ....................................
4 .............r......................
5 ...f................................
6 ....................................
7 ....................................

Turn = 6.
  012345678901234567890123456789012345
0 .f..t...............................
1 ...........h........................
2 r...................................
3 ....................................
4 ....................................
5 ....................................
6 ....................................
7 ...................................t
8 ....................................
9 ........................f...........
0 .......................f............
1 ....................................
2 ....................................
3 ....................................
4 ..........................h.........
5 ....................................
6 ....................................
7 ....................................
8 ....................................
9 ....................................
0 .................h..................
1 ....................................
2 ....................................
3 ....................................
4 ..........r.........................
5 ...f................................
6 ....................................
7 ....................................

Turn = 9.
  012345678901234567890123456789012345
0 rf..t......h........................
1 ....................................
2 ....................................
3 ....................................
4 ....................................
5 ....................................
6 ....................................
7 ...................................t
8 ....................................
9 ........................f...........
0 .......................f............
1 ..........................h.........
2 ....................................
3 ....................................
4 ....................................
5 ....................................
6 ....................................
7 ....................................
8 ....................................
9 ....................................
0 ..............h.....................
1 ....................................
2 ....................................
3 ....................................
4 .......r............................
5 ...f................................
6 ....................................
7 ....................................

*** Darwin 36x50 ***
Turn = 0.
  01234567890123456789012345678901234567890123456789
0 ..................................................
1 ..................................................
2 ....................................t.............
3 ...........f...............................h......
4 ..................................................
5 ..................................................
6 ..............r...................................
7 ..................................................
8 ..................................................
9 ..................................................
0 ..................................................
1 ..................................................
2 ..................................................
3 ..................................................
4 ..................................................
5 ..................................................
6 ..................f...............................
7 ......................................t...........
8 ..................................................
9 ..................................................
0 ....h......................................f......
1 ..................................................
2 ..................................................
3 ..................................................
4 ..................................................
5 ..................................................
6 .................................................t
7 ..................................................
8 ........................................h.........
9 ..................................................
0 ..................................................
1 ..................................................
2 ..................................................
3 .................f................................
4 ..................................................
5 ..................................................

Turn = 5.
  01234567890123456789012345678901234567890123456789
0 ..................................................
1 ..................................................
2 ....................................t.............
3 ...........f......................................
4 ..................................................
5 ..................................................
6 ...................r..............................
7 ..................................................
8 ...........................................h......
9 ..................................................
0 ..................................................
1 ..................................................
2 ..................................................
3 ..................................................
4 ..................................................
5 ..................................................
6 ..................f...............................
7 ......................................t...........
8 ..................................................
9 ..................................................
0 h..........................................f......
1 ..................................................
2 ..................................................
3 ..................................................
4 ..................................................
5 ..................................................
6 .................................................t
7 ..................................................
8 .............................................h....
9 ..................................................
0 ..................................................
1 ..................................................
2 ..................................................
3 .................f................................
4 ..................................................
5 ..................................................

Turn = 10.
  01234567890123456789012345678901234567890123456789
0 ..................................................
1 ..................................................
2 ....................................t.............
3 ...........f......................................
4 ..................................................
5 ..................................................
6 ........................r.........................
7 ..................................................
8 ..................................................
9 ..................................................
0 ..................................................
1 ..................................................
2 ..................................................
3 ...........................................h......
4 ..................................................
5 ..................................................
6 ..................f...............................
7 ......................................t...........
8 ..................................................
9 ..................................................
0 h..........................................f......
1 ..................................................
2 ..................................................
3 ..................................................
4 ..................................................
5 ..................................................
6 .................................................t
7 ..................................................
8 .................................................h
9 ..................................................
0 ..................................................
1 ..................................................
2 ..................................................
3 .................f................................
4 ..................................................
5 ..................................................

*** Darwin 28x36 ***
Turn = 0.
  012345678901234567890123456789012345
0 ....................................
1 ....................................
2 ................................r.h.
3 ....................................
4 ....................................
5 ....................................
6 ....................................
7 ....................................
8 ....r...............................
9 ....................................
0 ....................................
1 ....................................
2 ....................................
3 ....................................
4 ....................................
5 ...............f.................f..
6 r......................r............
7 ....................................
8 .................................t..
9 ....................................
0 ....................................
1 ....................................
2 .........................h..........
3 ....................................
4 ................f...................
5 ................................r...
6 ....................................
7 ....................................

Turn = 5.
  012345678901234567890123456789012345
0 ....................................
1 ..................................r.
2 ....................................
3 ....................................
4 ...................................r
5 ....................................
6 ....................................
7 ....................................
8 ....................................
9 ....................................
0 ....................................
1 r...................................
2 ....................................
3 ....r...............................
4 ....................................
5 ...............f.................f..
6 ..................r.................
7 ....................................
8 .................................t..
9 ....................................
0 ................................r...
1 ....................................
2 ....................................
3 ....................................
4 ................f...................
5 ....................................
6 ....................................
7 .........................h..........

*** Darwin 38x22 ***
Turn = 0.
  0123456789012345678901
0 ......................
1 ......................
2 ......................
3 .........t............
4 ......................
5 ......................
6 ......................
7 ......................
8 ......................
9 ......................
0 ......................
1 .................f....
2 ......................
3 ......................
4 ......................
5 ......................
6 ......................
7 ................h.....
8 ......................
9 ...f..........t.......
0 ......................
1 ......................
2 ......................
3 ......................
4 ............f.........
5 ......................
6 ......................
7 ......................
8 r................f....
9 ...................f..
0 ...........r..........
1 ............r.........
2 ......................
3 ......................
4 ......................
5 ......................
6 ......................
7 ......................

Turn = 3.
  0123456789012345678901
0 ......................
1 ......................
2 ......................
3 .........t............
4 ......................
5 ......................
6 ......................
7 ......................
8 ......................
9 ......................
0 ......................
1 .................f....
2 ......................
3 ......................
4 ......................
5 ......................
6 ......................
7 ...................h..
8 ......................
9 ...f..........t.......
0 ......................
1 ......................
2 ......................
3 ......................
4 ............f.........
5 ......................
6 ......................
7 ......................
8 ............r....f....
9 ...................f..
0 ......................
1 r.....................
2 ......................
3 ...........r..........
4 ......................
5 ......................
6 ......................
7 ......................

Turn = 6.
  0123456789012345678901
0 ......................
1 ......................
2 ......................
3 .........t............
4 ......................
5 ......................
6 ......................
7 ......................
8 ......................
9 ......................
0 ......................
1 .................f....
2 ......................
3 ......................
4 ......................
5 ......................
6 ......................
7 .....................h
8 ......................
9 ...f..........t.......
0 ......................
1 ......................
2 ......................
3 ......................
4 ............f.........
5 ............r.........
6 ......................
7 ......................
8 .................f....
9 ...................f..
0 ......................
1 ......................
2 ......................
3 ......................
4 r.....................
5 ......................
6 ...........r..........
7 ......................

Turn = 9.
  0123456789012345678901
0 ......................
1 ......................
2 ......................
3 .........t............
4 ......................
5 ......................
6 ......................
7 ......................
8 ......................
9 ......................
0 ......................
1 .................f....
2 ......................
3 ......................
4 ......................
5 ......................
6 ......................
7 .....................h
8 ......................
9 ...f..........t.......
0 ......................
1 ......................
2 ......................
3 ............r.........
4 ..............r.......
5 ......................
6 ......................
7 ......................
8 .................f....
9 ...................f..
0 ......................
1 ......................
2 ......................
3 ......................
4 ......................
5 ......................
6 ......................
7 r.........r...........

Turn = 12.
  0123456789012345678901
0 ......................
1 ......................
2 ......................
3 .........t............
4 ......................
5 ......................
6 ......................
7 ......................
8 ......................
9 ......................
0 ......................
1 .................f....
2 ......................
3 ......................
4 ......................
5 ......................
6 ......................
7 .....................h
8 ......................
9 ...f..........t.......
0 ............r.........
1 ......................
2 ......................
3 ......................
4 .................r....
5 ......................
6 ......................
7 ......................
8 .................f....
9 ...................f..
0 ......................
1 ......................
2 ......................
3 ......................
4 ......................
5 ......................
6 ......................
7 ..r....r..............

*** Darwin 36x34 ***
Turn = 0.
  0123456789012345678901234567890123
0 ..................................
1 ..................................
2 .....f............................
3 ..................................
4 ..................................
5 ..r...r...........................
6 ..................................
7 ........................r.........
8 ............................h.....
9 ..................................
0 ..................................
1 ..................................
2 ..................................
3 ..................................
4 ..................................
5 ..................................
6 ..................................
7 ..................................
8 ..................................
9 ..................................
0 ..............r...................
1 ..................................
2 f.................................
3 ..................................
4 ..................................
5 ..................................
6 ...f..............................
7 ..................................
8 .................r..............t.
9 ..................................
0 ..................................
1 ..................................
2 ..................................
3 ..................................
4 ..................................
5 ..................................

Turn = 4.
  0123456789012345678901234567890123
0 ..................................
1 ..................................
2 .....f............................
3 ..................................
4 ..................................
5 ..........r.......................
6 ..................................
7 ..................................
8 ........................h.........
9 ..r...............................
0 ..................................
1 ........................r.........
2 ..................................
3 ..................................
4 ..................................
5 ..................................
6 ..............r...................
7 ..................................
8 ..................................
9 ..................................
0 ..................................
1 ..................................
2 f.................................
3 ..................................
4 ..................................
5 ..................................
6 ...f..............................
7 ..................................
8 .....................r..........t.
9 ..................................
0 ..................................
1 ..................................
2 ..................................
3 ..................................
4 ..................................
5 ..................................

*** Darwin 38x28 ***
Turn = 0.
  0123456789012345678901234567
0 ............................
1 ............................
2 ............................
3 ............................
4 ............................
5 ............................
6 ............................
7 ............................
8 ............................
9 ............................
0 ............................
1 ............................
2 ............................
3 ............................
4 .........f..................
5 ....h.....................h.
6 ............................
7 ............................
8 ......................f..r..
9 ............................
0 ............................
1 ............................
2 ............................
3 ..............r.............
4 ............................
5 ............................
6 ............................
7 ............................
8 ......t.....................
9 ........................f...
0 ..........................h.
1 ............................
2 ............................
3 ............................
4 ............................
5 ..................h.........
6 ............................
7 .......................h....

Turn = 5.
  0123456789012345678901234567
0 ............................
1 ............................
2 ............................
3 ............................
4 ............................
5 ............................
6 ............................
7 ............................
8 ............................
9 ............................
0 ............................
1 ............................
2 ............................
3 ............................
4 .........f..................
5 ............................
6 ............................
7 ............................
8 ..............r.......f.....
9 ............................
0 ....h.....................h.
1 ............................
2 ............................
3 .........................r..
4 ............................
5 ..........................h.
6 ............................
7 ............................
8 ......t.....................
9 ........................f...
0 ............................
1 ............................
2 .......................h....
3 ............................
4 ............................
5 .............h..............
6 ............................
7 ............................

*** Darwin 34x46 ***
Turn = 0.
  0123456789012345678901234567890123456789012345
0 ..............................................
1 r.............................................
2 .........................................t....
3 ..............................................
4 ..............................................
5 ...............................t..............
6 ....f...................t..........t..........
7 ..............................................
8 ..............................................
9 ..............................................
0 ..............................................
1 ..............................................
2 ..............................f...............
3 ..............................................
4 ......r.......................................
5 ..............................................
6 ..............................................
7 ..............................................
8 ..............................................
9 .....................................r........
0 ..............................................
1 ..............................................
2 ..............................................
3 ..............................................
4 ..............................................
5 ..............................................
6 ..............................................
7 ..............................................
8 ..............................................
9 .......................f......................
0 ..............................................
1 ..............................................
2 ..............................................
3 ..............................................

Turn = 3.
  0123456789012345678901234567890123456789012345
0 .r............................................
1 ..............................................
2 .........................................t....
3 ..............................................
4 ..............................................
5 ...............................t..............
6 ....f...................t..........t..........
7 ..............................................
8 ..............................................
9 ..............................................
0 ..............................................
1 ..............................................
2 ..............................f...............
3 ..............................................
4 ..............................................
5 ..............................................
6 ..............................................
7 ......r.......................................
8 ..............................................
9 ..................................r...........
0 ..............................................
1 ..............................................
2 ..............................................
3 ..............................................
4 ..............................................
5 ..............................................
6 ..............................................
7 ..............................................
8 ..............................................
9 .......................f......................
0 ..............................................
1 ..............................................
2 ..............................................
3 ..............................................

Turn = 6.
  0123456789012345678901234567890123456789012345
0 ....r.........................................
1 ..............................................
2 .........................................t....
3 ..............................................
4 ..............................................
5 ...............................t..............
6 ....f...................t..........t..........
7 ..............................................
8 ..............................................
9 ..............................................
0 ..............................................
1 ..............................................
2 ..............................f...............
3 ..............................................
4 ..............................................
5 ..............................................
6 ..............................................
7 ..............................................
8 ..............................................
9 ...............................r..............
0 ......r.......................................
1 ..............................................
2 ..............................................
3 ..............................................
4 ..............................................
5 ..............................................
6 ..............................................
7 ..............................................
8 ..............................................
9 .......................f......................
0 ..............................................
1 ..............................................
2 ..............................................
3 ..............................................

Turn = 9.
  0123456789012345678901234567890123456789012345
0 .......r......................................
1 ..............................................
2 .........................................t....
3 ..............................................
4 ..............................................
5 ...............................t..............
6 ....f...................t..........t..........
7 ..............................................
8 ..............................................
9 ..............................................
0 ..............................................
1 ..............................................
2 ..............................f...............
3 ..............................................
4 ..............................................
5 ..............................................
6 ..............................................
7 ..............................................
8 ..............................................
9 ............................r.................
0 ..............................................
1 ..............................................
2 ..............................................
3 ......r.......................................
4 ..............................................
5 ..............................................
6 ..............................................
7 ..............................................
8 ..............................................
9 .......................f......................
0 ..............................................
1 ..............................................
2 ..............................................
3 ..............................................

*** Darwin 38x28 ***
Turn = 0.
  0123456789012345678901234567
0 ............................
1 ............................
2 ............................
3 ....................h.......
4 ...h........................
5 ............................
6 ............................
7 ............................
8 ............................
9 ............................
0 r...........................
1 ............th..............
2 ...................f......r.
3 ............................
4 ........h...................
5 ............................
6 ............................
7 ............................
8 ............................
9 ............................
0 ............................
1 ............................
2 ............................
3 ............................
4 ............................
5 ............................
6 ............................
7 ...........................h
8 .............r..............
9 ............................
0 ............................
1 ............................
2 ............h...............
3 ............................
4 ............................
5 ............................
6 ............................
7 ............................

Turn = 2.
  0123456789012345678901234567
0 ............................
1 ....................h.......
2 ............................
3 ............................
4 .....h......................
5 ............................
6 ............................
7 ............................
8 ............................
9 ............................
0 ..r.......................r.
1 ............tt..............
2 ...................f........
3 ............................
4 ..........h.................
5 ............................
6 ............................
7 ............................
8 ............................
9 ............................
0 ............................
1 ............................
2 ............................
3 ............................
4 ............................
5 ............................
6 ............................
7 ...........................h
8 ...........r................
9 ............................
0 ............................
1 ............................
2 ..............h.............
3 ............................
4 ............................
5 ............................
6 ............................
7 ............................

Turn = 4.
  0123456789012345678901234567
0 ....................h.......
1 ............................
2 ............................
3 ............................
4 .......h....................
5 ............................
6 ............................
7 ............................
8 ..........................r.
9 ............................
0 ....r.......................
1 ............tt..............
2 ...................f........
3 ............................
4 ............h...............
5 ............................
6 ............................
7 ............................
8 ............................
9 ............................
0 ............................
1 ............................
2 ............................
3 ............................
4 ............................
5 ............................
6 ............................
7 ...........................h
8 .........r..................
9 ............................
0 ............................
1 ............................
2 ................h...........
3 ............................
4 ............................
5 ............................
6 ............................
7 ............................

Turn = 6.
  0123456789012345678901234567
0 ....................h.......
1 ............................
2 ............................
3 ............................
4 .........h..................
5 ............................
6 ..........................r.
7 ............................
8 ............................
9 ............................
0 ......r.....................
1 ............tt..............
2 ...................f........
3 ............................
4 ..............h.............
5 ............................
6 ............................
7 ............................
8 ............................
9 ............................
0 ............................
1 ............................
2 ............................
3 ............................
4 ............................
5 ............................
6 ............................
7 ...........................h
8 .......r....................
9 ............................
0 ............................
1 ............................
2 ..................h.........
3 ............................
4 ............................
5 ............................
6 ............................
7 ............................

Turn = 8.
  0123456789012345678901234567
0 ....................h.......
1 ............................
2 ............................
3 ............................
4 ...........h..............r.
5 ............................
6 ............................
7 ............................
8 ............................
9 ............................
0 ........r...................
1 ............tt..............
2 ...................f........
3 ............................
4 ................h...........
5 ............................
6 ............................
7 ............................
8 ............................
9 ............................
0 ............................
1 ............................
2 ............................
3 ............................
4 ............................
5 ............................
6 ............................
7 ...........................h
8 .....r......................
9 ............................
0 ............................
1 ............................
2 ....................h.......
3 ............................
4 ............................
5 ............................
6 ............................
7 ............................

Turn = 10.
  0123456789012345678901234567
0 ....................h.......
1 ............................
2 ..........................r.
3 ............................
4 .............h..............
5 ............................
6 ............................
7 ............................
8 ............................
9 ............................
0 ..........r.................
1 ............tt..............
2 ...................f........
3 ............................
4 ..................h.........
5 ............................
6 ............................
7 ............................
8 ............................
9 ............................
0 ............................
1 ............................
2 ............................
3 ............................
4 ............................
5 ............................
6 ............................
7 ...........................h
8 ...r........................
9 ............................
0 ............................
1 ............................
2 ......................h.....
3 ............................
4 ............................
5 ............................
6 ............................
7 ............................

Turn = 12.
  0123456789012345678901234567
0 ....................h.....r.
1 ............................
2 ............................
3 ............................
4 ...............h............
5 ............................
6 ............................
7 ............................
8 ............................
9 ............................
0 ............r...............
1 ............tt..............
2 ...................f........
3 ............................
4 ....................h.......
5 ............................
6 ............................
7 ............................
8 ............................
9 ............................
0 ............................
1 ............................
2 ............................
3 ............................
4 ............................
5 ............................
6 ............................
7 ...........................h
8 .r..........................
9 ............................
0 ............................
1 ............................
2 ........................h...
3 ............................
4 ............................
5 ............................
6 ............................
7 ............................

*** Darwin 32x20 ***
Turn = 0.
  01234567890123456789
0 ..................t.
1 .................t..
2 ....................
3 ....................
4 ....................
5 ....................
6 ....................
7 ....................
8 ....................
9 ....................
0 ...........t........
1 ....................
2 ....................
3 ....................
4 ....................
5 ....................
6 ....................
7 ....................
8 ................r...
9 ....................
0 ................r...
1 ....................
2 ....................
3 ....................
4 ....................
5 t.....r..r..........
6 ............f.......
7 ....................
8 ....................
9 ....................
0 ..............f.....
1 ....................

Turn = 2.
  01234567890123456789
0 ..................t.
1 .................t..
2 ....................
3 ....................
4 ....................
5 ....................
6 ....................
7 ....................
8 ....................
9 ....................
0 ...........t........
1 ....................
2 ....................
3 ....................
4 ....................
5 ....................
6 ................r...
7 ....................
8 ....................
9 ....................
0 ..................r.
1 ....................
2 ....................
3 ....................
4 ....................
5 t...................
6 ............f.......
7 ......r..r..........
8 ....................
9 ....................
0 ..............f.....
1 ....................

Turn = 4.
  01234567890123456789
0 ..................t.
1 .................t..
2 ....................
3 ....................
4 ....................
5 ....................
6 ....................
7 ....................
8 ....................
9 ....................
0 ...........t........
1 ....................
2 ....................
3 ....................
4 ................r...
5 ....................
6 ....................
7 ....................
8 ....................
9 ....................
0 ...................r
1 ....................
2 ....................
3 ....................
4 ....................
5 t...................
6 ............f.......
7 ....................
8 ....................
9 ......r..r..........
0 ..............f.....
1 ....................

Turn = 6.
  01234567890123456789
0 ..................t.
1 .................t..
2 ....................
3 ....................
4 ....................
5 ....................
6 ....................
7 ....................
8 ....................
9 ....................
0 ...........t........
1 ....................
2 ................r...
3 ....................
4 ....................
5 ....................
6 ....................
7 ....................
8 ....................
9 ....................
0 ....................
1 ....................
2 ...................r
3 ....................
4 ....................
5 t...................
6 ............f.......
7 ....................
8 ....................
9 ....................
0 ..............f.....
1 ......r..r..........

Turn = 8.
  01234567890123456789
0 ..................t.
1 .................t..
2 ....................
3 ....................
4 ....................
5 ....................
6 ....................
7 ....................
8 ....................
9 ....................
0 ...........t....r...
1 ....................
2 ....................
3 ....................
4 ....................
5 ....................
6 ....................
7 ....................
8 ....................
9 ....................
0 ....................
1 ....................
2 ....................
3 ....................
4 ...................r
5 t...................
6 ............f.......
7 ....................
8 ....................
9 ....................
0 ..............f.....
1 .......rr...........

Turn = 10.
  01234567890123456789
0 ..................t.
1 .................t..
2 ....................
3 ....................
4 ....................
5 ....................
6 ....................
7 ....................
8 ................r...
9 ....................
0 ...........t........
1 ....................
2 ....................
3 ....................
4 ....................
5 ....................
6 ....................
7 ....................
8 ....................
9 ....................
0 ....................
1 ....................
2 ....................
3 ....................
4 ....................
5 t...................
6 ............f......r
7 ....................
8 ....................
9 ....................
0 ........r.....f.....
1 .......r............

*** Darwin 38x54 ***
Turn = 0.
  012345678901234567890123456789012345678901234567890123
0 ......................................................
1 ......................................................
2 ......................................................
3 ..................th..................................
4 ......................................................
5 ......................................................
6 ......................................................
7 ..............................r.......................
8 ......................................................
9 ......................................................
0 ......................................................
1 ......................................................
2 ...................h..................................
3 .......t..............................................
4 ......................................................
5 ....r........h........................................
6 ......................................................
7 ......................................................
8 ......................................................
9 ......................................................
0 ......................................................
1 ......................................................
2 ...........................................r..........
3 ......................................................
4 ......................................................
5 ......................................................
6 ......................................................
7 ......................................................
8 ......................................................
9 ......................................................
0 ............................................r.........
1 ..................................................t...
2 ......................................................
3 ......................................................
4 ......................................................
5 ......................................................
6 ......................................................
7 .................................................r....

Turn = 3.
  012345678901234567890123456789012345678901234567890123
0 ......................................................
1 ......................................................
2 ......................................................
3 ..................tt..................................
4 ......................................................
5 ......................................................
6 ......................................................
7 ......................................................
8 ......................................................
9 ......................................................
0 ..............................r.......................
1 ......................................................
2 ......................................................
3 .......t..............................................
4 ......................................................
5 .r........h........h..................................
6 ......................................................
7 ......................................................
8 ......................................................
9 ......................................................
0 ......................................................
1 ......................................................
2 ..............................................r.......
3 ......................................................
4 ......................................................
5 ......................................................
6 ......................................................
7 ............................................r.........
8 ......................................................
9 ......................................................
0 ......................................................
1 ..................................................t...
2 ......................................................
3 ......................................................
4 ......................................................
5 ......................................................
6 ......................................................
7 ..............................................r.......

Turn = 6.
  012345678901234567890123456789012345678901234567890123
0 ......................................................
1 ......................................................
2 ......................................................
3 ..................tt..................................
4 ......................................................
5 ......................................................
6 ......................................................
7 ......................................................
8 ......................................................
9 ......................................................
0 ......................................................
1 ......................................................
2 ......................................................
3 .......t......................r.......................
4 r.....................................................
5 .......h..............................................
6 ......................................................
7 ......................................................
8 ...................h..................................
9 ......................................................
0 ......................................................
1 ......................................................
2 .................................................r....
3 ......................................................
4 ............................................r.........
5 ......................................................
6 ......................................................
7 ......................................................
8 ......................................................
9 ......................................................
0 ......................................................
1 ..................................................t...
2 ......................................................
3 ......................................................
4 ......................................................
5 ......................................................
6 ......................................................
7 ...........................................r..........

*** Darwin 30x22 ***
Turn = 0.
  0123456789012345678901
0 ......................
1 ...........t..........
2 ......................
3 ...............f......
4 .......h..............
5 ......................
6 ......................
7 ......................
8 ......................
9 ....t.................
0 ....t...............r.
1 .r....................
2 ....r.................
3 ......................
4 ......................
5 ......................
6 ..............h.......
7 ......................
8 ......................
9 ......................
0 ..........r...........
1 ......................
2 ......................
3 ......................
4 ......................
5 ..........h...........
6 ......................
7 ......................
8 ......................
9 ......................

Turn = 3.
  0123456789012345678901
0 ......................
1 ...........t..........
2 ......................
3 ...............f......
4 ....h.................
5 ......................
6 ......................
7 ......................
8 ......................
9 ....t.................
0 ....t.................
1 .....................r
2 rr....................
3 ......................
4 ......................
5 ......................
6 ......................
7 ......................
8 ......................
9 ..............h.......
0 .............r........
1 ......................
2 ..........h...........
3 ......................
4 ......................
5 ......................
6 ......................
7 ......................
8 ......................
9 ......................

Turn = 6.
  0123456789012345678901
0 ......................
1 ...........t..........
2 ......................
3 ...............f......
4 .h....................
5 ......................
6 ......................
7 ......................
8 ......................
9 ....t.................
0 ....t.................
1 r.....................
2 ......................
3 ......................
4 .....................r
5 r.....................
6 ......................
7 ......................
8 ......................
9 ..........h...........
0 ......................
1 .............r........
2 ..............r.......
3 ......................
4 ......................
5 ......................
6 ......................
7 ......................
8 ......................
9 ......................

Turn = 9.
  0123456789012345678901
0 ......................
1 ...........t..........
2 ......................
3 ...............f......
4 h.....................
5 ......................
6 ......................
7 ......................
8 r.....................
9 ....t.................
0 ....t.................
1 ......................
2 ......................
3 ......................
4 ......................
5 ......................
6 ..........h...........
7 .....................r
8 r.....................
9 ......................
0 ......................
1 ......................
2 ......................
3 ......................
4 .............r........
5 ..............r.......
6 ......................
7 ......................
8 ......................
9 ......................

Turn = 12.
  0123456789012345678901
0 ......................
1 ...........t..........
2 ......................
3 ...............f......
4 h.....................
5 r.....................
6 ......................
7 ......................
8 ......................
9 ....t.................
0 ....t.................
1 ......................
2 ......................
3 ..........h...........
4 ......................
5 ......................
6 ......................
7 ......................
8 ......................
9 ......................
0 .....................r
1 r.....................
2 ......................
3 ......................
4 ......................
5 ......................
6 ......................
7 .............r........
8 ..............r.......
9 ......................

*** Darwin 26x38 ***
Turn = 0.
  01234567890123456789012345678901234567
0 ......................................
1 ......................................
2 ......................................
3 ..........................t...........
4 ......................................
5 ..........................r...........
6 .......h..............................
7 ......................................
8 ......................................
9 ......................................
0 ......................................
1 ......................................
2 ..........t...........................
3 ......................................
4 ......................................
5 ................................f.....
6 ......................................
7 ......................................
8 ......................................
9 ......................................
0 .........h............................
1 t.....................................
2 ..r...................................
3 ......................................
4 .r...........h........................
5 ......................................

Turn = 3.
  01234567890123456789012345678901234567
0 ......................................
1 ......................................
2 ......................................
3 ..........................t...........
4 ......................................
5 ......................................
6 ..........h...........................
7 ......................................
8 ..........................r...........
9 ......................................
0 ......................................
1 ......................................
2 ..........t...........................
3 ......................................
4 ......................................
5 ................................f.....
6 ......................................
7 .........h............................
8 ......................................
9 ......................................
0 ......................................
1 t.....................................
2 .....r................................
3 r.....................................
4 ..........h...........................
5 ......................................

Turn = 6.
  01234567890123456789012345678901234567
0 ......................................
1 ......................................
2 ......................................
3 ..........................t...........
4 ......................................
5 ......................................
6 .............h........................
7 ......................................
8 ......................................
9 ......................................
0 ......................................
1 ..........................r...........
2 ..........t...........................
3 ......................................
4 .........h............................
5 ................................f.....
6 ......................................
7 ......................................
8 ......................................
9 ......................................
0 r.....................................
1 r.....................................
2 ........r.............................
3 ......................................
4 .......h..............................
5 ......................................

*** Darwin 26x46 ***
Turn = 0.
  0123456789012345678901234567890123456789012345
0 .............h................................
1 ....................h.........................
2 .....h........................................
3 ..............................................
4 ..............................................
5 ...................................t..........
6 ..............................................
7 ..............................................
8 ..............................................
9 ..........................t...................
0 ..............h...............................
1 ..............................................
2 ..............................................
3 ............h.................................
4 ..............................................
5 ..............................................
6 ..............................................
7 ..............................................
8 .....................................h..h.....
9 ..............................................
0 ............................r.................
1 ..............................................
2 ..............................................
3 ..............................................
4 ..............................................
5 ..............................................

Turn = 4.
  0123456789012345678901234567890123456789012345
0 .........h....................................
1 ................h.............................
2 ..............................................
3 ..............................................
4 ..............................................
5 ...................................t..........
6 .....h........................................
7 ..............................................
8 ..............................................
9 ..........................t...................
0 ..........h...................................
1 ..............................................
2 ..............................................
3 ..............................................
4 ..............................................
5 ..............................................
6 ............................r.................
7 ............h.................................
8 .................................h..h.........
9 ..............................................
0 ..............................................
1 ..............................................
2 ..............................................
3 ..............................................
4 ..............................................
5 ..............................................

*** Darwin 22x24 ***
Turn = 0.
  012345678901234567890123
0 ........................
1 ........................
2 ........................
3 ..............r.........
4 ......t....f............
5 ..r.....................
6 ........................
7 ................t.......
8 ........................
9 ........................
0 ....t...................
1 ........ff..............
2 ........................
3 ........................
4 ........................
5 ....................r...
6 ........................
7 ........................
8 ........................
9 ...........r............
0 ........................
1 ........................

Turn = 2.
  012345678901234567890123
0 ........................
1 ........................
2 ........................
3 ........................
4 ......t....f............
5 r.............r.........
6 ........................
7 ................t.......
8 ........................
9 ........................
0 ....t...................
1 ........ff..............
2 ........................
3 ........................
4 ........................
5 ........................
6 ........................
7 ....................r...
8 ........................
9 ........................
0 ........................
1 ...........r............

Turn = 4.
  012345678901234567890123
0 ........................
1 ........................
2 ........................
3 ........................
4 r.....t....f............
5 ........................
6 ........................
7 ..............r.t.......
8 ........................
9 ........................
0 ....t...................
1 ........ff..............
2 ........................
3 ........................
4 ........................
5 ........................
6 ........................
7 ........................
8 ........................
9 ....................r...
0 ........................
1 ............r...........

Turn = 6.
  012345678901234567890123
0 ........................
1 ........................
2 r.......................
3 ........................
4 ......t....f............
5 ........................
6 ........................
7 ................t.......
8 ........................
9 ..............r.........
0 ....t...................
1 ........ff..............
2 ........................
3 ........................
4 ........................
5 ........................
6 ........................
7 ........................
8 ........................
9 ........................
0 ........................
1 ..............r.....r...

Turn = 8.
  012345678901234567890123
0 r.......................
1 ........................
2 ........................
3 ........................
4 ......t....f............
5 ........................
6 ........................
7 ................t.......
8 ........................
9 ........................
0 ....t...................
1 ........ff....r.........
2 ........................
3 ........................
4 ........................
5 ........................
6 ........................
7 ........................
8 ........................
9 ........................
0 ........................
1 ................r..r....

*** Darwin 24x48 ***
Turn = 0.
  012345678901234567890123456789012345678901234567
0 ............h...................................
1 ................................................
2 ................................................
3 ................................................
4 ................................................
5 ................................................
6 ................................................
7 .............h..................................
8 .............................................t..
9 ................................................
0 ...............r.............f............h.....
1 ............r...................................
2 ................................................
3 ................................................
4 ................................................
5 ........................t.......................
6 .....................................f..........
7 .....................h..........................
8 ................................................
9 ................................................
0 ................................................
1 ................................................
2 ................................................
3 ..........................h.....................

Turn = 5.
  012345678901234567890123456789012345678901234567
0 ............h...................................
1 ................................................
2 ................................................
3 ................................................
4 ................................................
5 ...............r................................
6 ................................................
7 ..................h.............................
8 .............................................t..
9 ................................................
0 .............................f.................h
1 .......r........................................
2 ................................................
3 ................................................
4 ................................................
5 ........................t.......................
6 .....................................f..........
7 ................h...............................
8 ................................................
9 ................................................
0 ................................................
1 ................................................
2 ................................................
3 ..........................h.....................

Turn = 10.
  012345678901234567890123456789012345678901234567
0 ............h..r................................
1 ................................................
2 ................................................
3 ................................................
4 ................................................
5 ................................................
6 ................................................
7 .......................h........................
8 .............................................t..
9 ................................................
0 .............................f.................h
1 ..r.............................................
2 ................................................
3 ................................................
4 ................................................
5 ........................t.......................
6 .....................................f..........
7 ...........h....................................
8 ................................................
9 ................................................
0 ................................................
1 ................................................
2 ................................................
3 ..........................h.....................

*** Darwin 34x26 ***
Turn = 0.
  01234567890123456789012345
0 .................h........
1 ..........................
2 ..........................
3 .......................f..
4 ..........................
5 ..........................
6 ..........................
7 ..........................
8 ..........................
9 ....................h.....
0 ..........................
1 .....h....................
2 ..........................
3 ..........................
4 ..........................
5 ..........................
6 ..t.............h.........
7 ......t...................
8 ..........................
9 ..........................
0 ..........................
1 ..........................
2 ..........................
3 ..........................
4 ...t......................
5 ..........................
6 ..........................
7 ..........................
8 .....................r....
9 ..........................
0 .............t............
1 ..........................
2 .......................h..
3 ..........................

Turn = 3.
  01234567890123456789012345
0 ....................h.....
1 ..........................
2 ..........................
3 .......................f..
4 ..........................
5 ..........................
6 ..........................
7 ..........................
8 .....h....................
9 ..........................
0 ..........................
1 ..........................
2 ....................h.....
3 ................h.........
4 ..........................
5 ..........................
6 ..t.......................
7 ......t...................
8 ..........................
9 ..........................
0 ..........................
1 ..........................
2 ..........................
3 ..........................
4 ...t......................
5 ..........................
6 ..........................
7 ..........................
8 ........................r.
9 ..........................
0 .............t............
1 ..........................
2 .........................h
3 ..........................

Turn = 6.
  01234567890123456789012345
0 .......................h..
1 ..........................
2 ..........................
3 .......................f..
4 ..........................
5 .....h....................
6 ..........................
7 ..........................
8 ..........................
9 ..........................
0 ................h.........
1 ..........................
2 ..........................
3 ..........................
4 ..........................
5 ....................h.....
6 ..t.......................
7 ......t...................
8 ..........................
9 ..........................
0 ..........................
1 ..........................
2 ..........................
3 ..........................
4 ...t......................
5 ..........................
6 ..........................
7 ..........................
8 ..........................
9 .........................r
0 .............t............
1 ..........................
2 .........................h
3 ..........................

Turn = 9.
  01234567890123456789012345
0 .........................h
1 ..........................
2 .....h....................
3 .......................f..
4 ..........................
5 ..........................
6 ..........................
7 ................h.........
8 ..........................
9 ..........................
0 ..........................
1 ..........................
2 ..........................
3 ..........................
4 ..........................
5 ..........................
6 ..t.......................
7 ......t...................
8 ....................h.....
9 ..........................
0 ..........................
1 ..........................
2 ..........................
3 ..........................
4 ...t......................
5 ..........................
6 ..........................
7 ..........................
8 ..........................
9 ..........................
0 .............t............
1 .........................r
2 .........................r
3 ..........................

Turn = 12.
  01234567890123456789012345
0 .....h...................h
1 ..........................
2 ..........................
3 .......................f..
4 ................h.........
5 ..........................
6 ..........................
7 ..........................
8 ..........................
9 ..........................
0 ..........................
1 ..........................
2 ..........................
3 ..........................
4 ..........................
5 ..........................
6 ..t.......................
7 ......t...................
8 ..........................
9 ..........................
0 ..........................
1 ....................h.....
2 ..........................
3 ..........................
4 ...t......................
5 ..........................
6 ..........................
7 ..........................
8 ..........................
9 ..........................
0 .............t............
1 .......................r..
2 ..........................
3 .........................r

*** Darwin 34x44 ***
Turn = 0.
  01234567890123456789012345678901234567890123
0 ............................................
1 ...............................f........f...
2 ............................................
3 ............................................
4 ............................................
5 ............................................
6 ............h...............................
7 ............................................
8 ............................................
9 ............................................
0 ...............h..................h.........
1 .....r......................................
2 ................r...........................
3 ............................................
4 ............................................
5 ............................................
6 ............................................
7 ............................................
8 ............................................
9 ............................................
0 ............................................
1 .........................r..................
2 ............................................
3 ............................................
4 ............................................
5 ............................................
6 ............................................
7 ..........................................r.
8 ............................................
9 ................h...........................
0 ............................................
1 ............................................
2 ............................................
3 ............................................

Turn = 4.
  01234567890123456789012345678901234567890123
0 ............................................
1 ...............................f........f...
2 ............h...............................
3 ............................................
4 ............................................
5 ............................................
6 ...............h............................
7 ............................................
8 ................r...........................
9 ............................................
0 ..............................h.............
1 ............................................
2 ............................................
3 ............................................
4 ............................................
5 .....r......................................
6 ............................................
7 .........................r..................
8 ............................................
9 ............................................
0 ............................................
1 ............................................
2 ............................................
3 ............................................
4 ............................................
5 ............................................
6 ............................................
7 ......................................r.....
8 ............................................
9 ............................................
0 ............................................
1 ............................................
2 ............................................
3 ................h...........................

Turn = 8.
  01234567890123456789012345678901234567890123
0 ............h...............................
1 ...............................f........f...
2 ...............h............................
3 ............................................
4 ................r...........................
5 ............................................
6 ............................................
7 ............................................
8 ............................................
9 ............................................
0 ..........................h.................
1 ............................................
2 ............................................
3 .........................r..................
4 ............................................
5 ............................................
6 ............................................
7 ............................................
8 ............................................
9 .....r......................................
0 ............................................
1 ............................................
2 ............................................
3 ............................................
4 ............................................
5 ............................................
6 ............................................
7 ..................................r.........
8 ............................................
9 ............................................
0 ............................................
1 ............................................
2 ............................................
3 ................h...........................
